…
``` r
lizard_seascape <- seascape_probability(
  reefoutline = lizard_reef_map,
  habitat = lizard_benthic_map
)

lizard_seascape
```

    Simple feature collection with 669 features and 3 fields
    Geometry type: POLYGON
    Dimension:     XY
    Bounding box:  xmin: 1628792 ymin: 8347643 xmax: 1633662 ymax: 8354525
    Projected CRS: AGD84 / AMG zone 53
    # A tibble: 669 × 4
    # Groups:   class [7]
       class                              geometry habitat_id settlement_probability
     * <chr>                         <POLYGON [m]> <chr>                       <dbl>
     1 Back Reef Slope ((1629141 8349637, 1629142… Back_Reef…                   0.46
     2 Back Reef Slope ((1629009 8350083, 1629009… Back_Reef…                   0.54
     3 Back Reef Slope ((1628986 8350109, 1628985… Back_Reef…                   0.57
     4 Back Reef Slope ((1628986 8350114, 1628986… Back_Reef…                   0.45
     5 Back Reef Slope ((1628996 8350109, 1628997… Back_Reef…                   0.68
     6 Back Reef Slope ((1628948 8350136, 1628938… Back_Reef…                   0.45
     7 Back Reef Slope ((1629017 8350158, 1629017… Back_Reef…                   0.52
     8 Back Reef Slope ((1628929 8350162, 1628929… Back_Reef…                   0.76
     9 Back Reef Slope ((1629009 8350189, 1629009… Back_Reef…                   0.64
    10 Back Reef Slope ((1629014 8350189, 1629014… Back_Reef…                   0.47
    # ℹ 659 more rows
…
    $seascape
    Simple feature collection with 669 features and 3 fields
    Geometry type: POLYGON
    Dimension:     XY
    Bounding box:  xmin: 1628792 ymin: 8347643 xmax: 1633662 ymax: 8354525
    Projected CRS: AGD84 / AMG zone 53
    # A tibble: 669 × 4
    # Groups:   class [7]
       class                              geometry habitat_id settlement_probability
     * <chr>                         <POLYGON [m]> <chr>                       <dbl>
     1 Back Reef Slope ((1629141 8349637, 1629142… Back_Reef…                   0.46
     2 Back Reef Slope ((1629009 8350083, 1629009… Back_Reef…                   0.54
     3 Back Reef Slope ((1628986 8350109, 1628985… Back_Reef…                   0.57
     4 Back Reef Slope ((1628986 8350114, 1628986… Back_Reef…                   0.45
     5 Back Reef Slope ((1628996 8350109, 1628997… Back_Reef…                   0.68
     6 Back Reef Slope ((1628948 8350136, 1628938… Back_Reef…                   0.45
     7 Back Reef Slope ((1629017 8350158, 1629017… Back_Reef…                   0.52
     8 Back Reef Slope ((1628929 8350162, 1628929… Back_Reef…                   0.76
     9 Back Reef Slope ((1629009 8350189, 1629009… Back_Reef…                   0.64
    10 Back Reef Slope ((1629014 8350189, 1629014… Back_Reef…                   0.47
    # ℹ 659 more rows

    $seeded_particles
    $seeded_particles$seed_particles
    Simple feature collection with 680199 features and 12 fields
    Geometry type: POINT
    Dimension:     XY
    Bounding box:  xmin: 1630876 ymin: 8352221 xmax: 1633558 ymax: 8354455
    Projected CRS: AGD84 / AMG zone 53
    # A tibble: 680,199 × 13
       id    time                dispersaltime settlement_point state competency
     * <chr> <dttm>                      <dbl>            <dbl> <dbl> <chr>
     1 NGI1  2022-12-16 00:00:00             0              720     0 incompetent
     2 NGI1  2022-12-16 00:01:00             1              720     0 incompetent
     3 NGI1  2022-12-16 00:02:00             2              720     0 incompetent
     4 NGI1  2022-12-16 00:03:00             3              720     0 incompetent
     5 NGI1  2022-12-16 00:04:00             4              720     0 incompetent
     6 NGI1  2022-12-16 00:05:00             5              720     0 incompetent
     7 NGI1  2022-12-16 00:06:00             6              720     0 incompetent
     8 NGI1  2022-12-16 00:07:00             7              720     0 incompetent
     9 NGI1  2022-12-16 00:08:00             8              720     0 incompetent
    10 NGI1  2022-12-16 00:09:00             9              720     0 incompetent
    # ℹ 680,189 more rows
    # ℹ 7 more variables: geometry <POINT [m]>, class <fct>, habitat_id <fct>,
    #   settlement_probability <dbl>, settlement_outcome <int>, final <dbl>,
    #   outcome <fct>
…
    $settlers
    $settlers$points
    Simple feature collection with 272 features and 5 fields
    Geometry type: POINT
    Dimension:     XY
    Bounding box:  xmin: 1630920 ymin: 8354121 xmax: 1631653 ymax: 8354394
    Projected CRS: AGD84 / AMG zone 53
    # A tibble: 272 × 6
    # Groups:   id [272]
       id    class time                dispersaltime          geometry cat
     * <chr> <fct> <dttm>                      <dbl>       <POINT [m]> <fct>
     1 NGI10 Reef… 2022-12-16 11:21:00           681 (1631120 8354296) settled
     2 NGI1… Reef… 2022-12-16 11:31:00           691 (1631108 8354255) settled
     3 NGI1… Reef… 2022-12-16 08:51:00           531 (1631138 8354217) settled
     4 NGI1… Reef… 2022-12-16 08:51:00           531 (1630995 8354224) settled
     5 NGI1… Reef… 2022-12-16 09:28:00           568 (1631009 8354226) settled
     6 NGI1… Reef… 2022-12-16 11:37:00           697 (1631105 8354266) settled
     7 NGI1… Back… 2022-12-16 01:53:00           113 (1631054 8354164) settled
     8 NGI1… Reef… 2022-12-16 08:33:00           513 (1631013 8354210) settled
     9 NGI1… Reef… 2022-12-16 05:21:00           321 (1631082 8354304) settled
    10 NGI1… Oute… 2022-12-16 11:55:00           715 (1631141 8354362) settled
    # ℹ 262 more rows

    $settlers$paths
    Simple feature collection with 272 features and 3 fields
    Geometry type: LINESTRING
    Dimension:     XY
    Bounding box:  xmin: 1630888 ymin: 8354121 xmax: 1631653 ymax: 8354416
    Projected CRS: AGD84 / AMG zone 53
    # A tibble: 272 × 4
       id     dispersaltime                                      geometry.x distance
     * <chr>          <dbl>                                <LINESTRING [m]>      [m]
     1 NGI10          340.  (1631097 8354176, 1631097 8354176, 1631097 835…     441.
     2 NGI105         346.  (1631097 8354176, 1631097 8354176, 1631097 835…     301.
     3 NGI106         266.  (1631097 8354176, 1631091 8354175, 1631085 835…     324.
     4 NGI109         266.  (1631097 8354176, 1631096 8354175, 1631094 835…     380.
     5 NGI110         284   (1631097 8354176, 1631097 8354175, 1631097 835…     399.
     6 NGI118         348.  (1631097 8354176, 1631097 8354176, 1631097 835…     429.
     7 NGI121          56.5 (1631097 8354176, 1631100 8354175, 1631103 835…     121.
     8 NGI129         256.  (1631097 8354176, 1631095 8354176, 1631092 835…     348.
     9 NGI130         160.  (1631097 8354176, 1631097 8354175, 1631096 835…     391.
    10 NGI134         358.  (1631097 8354176, 1631097 8354175, 1631096 835…     579.
    # ℹ 262 more rows
…
