…
``` r
seascape <- seascape_probability(
  reefoutline = reef_map,
  habitat = benthic_map
)

seascape
```

    Simple feature collection with 669 features and 3 fields
    Geometry type: POLYGON
    Dimension:     XY
    Bounding box:  xmin: 1628792 ymin: 8347643 xmax: 1633662 ymax: 8354525
    Projected CRS: AGD84 / AMG zone 53
    # A tibble: 669 × 4
    # Groups:   class [7]
       class                              geometry habitat_id settlement_probability
     * <chr>                         <POLYGON [m]> <chr>                       <dbl>
     1 Back Reef Slope ((1629141 8349637, 1629142… Back_Reef…                   0.5
     2 Back Reef Slope ((1629009 8350083, 1629009… Back_Reef…                   0.39
     3 Back Reef Slope ((1628986 8350109, 1628985… Back_Reef…                   0.73
     4 Back Reef Slope ((1628986 8350114, 1628986… Back_Reef…                   0.69
     5 Back Reef Slope ((1628996 8350109, 1628997… Back_Reef…                   0.45
     6 Back Reef Slope ((1628948 8350136, 1628938… Back_Reef…                   0.57
     7 Back Reef Slope ((1629017 8350158, 1629017… Back_Reef…                   0.77
     8 Back Reef Slope ((1628929 8350162, 1628929… Back_Reef…                   0.6
     9 Back Reef Slope ((1629009 8350189, 1629009… Back_Reef…                   0.64
    10 Back Reef Slope ((1629014 8350189, 1629014… Back_Reef…                   0.47
    # ℹ 659 more rows
…
seascape_area
```

    # A tibble: 98 × 4
       settlement_probability       area_m2       area_ha prop_area
                        <dbl>         <dbl>         <dbl>     <dbl>
     1                   0    16662.        1.67           3.36e- 3
     2                   0.01     0.0000330 0.00000000330  6.67e-12
     3                   0.03  2603.        0.260          5.26e- 4
     4                   0.04  2157.        0.216          4.36e- 4
     5                   0.05  8776.        0.878          1.77e- 3
     6                   0.06  1240.        0.124          2.50e- 4
     7                   0.08  2157.        0.216          4.36e- 4
     8                   0.09  8876.        0.888          1.79e- 3
     9                   0.1     99.2       0.00992        2.00e- 5
    10                   0.11  1289.        0.129          2.60e- 4
    # ℹ 88 more rows
…
